[{
  "id": 1,
  "fecha": "2017-06-19",
  "importe": 31.88,
  "latitud": 38.6627574,
  "longitud": -9.0573022
}, {
  "id": 2,
  "fecha": "2017-07-28",
  "importe": 97.45,
  "latitud": 43.5561243,
  "longitud": 77.9995589
}, {
  "id": 3,
  "fecha": "2017-12-28",
  "importe": 53.2,
  "latitud": 34.6372754,
  "longitud": 134.0105824
}, {
  "id": 4,
  "fecha": "2017-01-11",
  "importe": 77.89,
  "latitud": 22.000143,
  "longitud": 100.771678
}, {
  "id": 5,
  "fecha": "2017-10-03",
  "importe": 85.73,
  "latitud": -14.3322488,
  "longitud": -56.6513853
}, {
  "id": 6,
  "fecha": "2017-10-15",
  "importe": 83.72,
  "latitud": 46.5993244,
  "longitud": -1.1457859
}, {
  "id": 7,
  "fecha": "2017-08-05",
  "importe": 4.22,
  "latitud": 42.90835,
  "longitud": 25.2182047
}, {
  "id": 8,
  "fecha": "2017-05-26",
  "importe": 94.85,
  "latitud": -26.1633679,
  "longitud": 27.797184
}, {
  "id": 9,
  "fecha": "2017-03-18",
  "importe": 50.04,
  "latitud": 34.0083715,
  "longitud": 72.0109863
}, {
  "id": 10,
  "fecha": "2017-02-24",
  "importe": 8.22,
  "latitud": 52.0404797,
  "longitud": 76.9262526
}, {
  "id": 11,
  "fecha": "2017-03-21",
  "importe": 91.13,
  "latitud": 50.122577,
  "longitud": 26.1149716
}, {
  "id": 12,
  "fecha": "2017-10-01",
  "importe": 25.92,
  "latitud": 48.0778483,
  "longitud": 39.7955373
}, {
  "id": 13,
  "fecha": "2017-11-04",
  "importe": 11.31,
  "latitud": 38.0412749,
  "longitud": 23.5418125
}, {
  "id": 14,
  "fecha": "2017-02-08",
  "importe": 21.09,
  "latitud": 60.8151976,
  "longitud": 23.8712999
}, {
  "id": 15,
  "fecha": "2017-02-04",
  "importe": 77.82,
  "latitud": 57.2588115,
  "longitud": 40.8141102
}, {
  "id": 16,
  "fecha": "2017-12-10",
  "importe": 31.77,
  "latitud": "50.78342",
  "longitud": "-112.46854"
}, {
  "id": 17,
  "fecha": "2017-11-26",
  "importe": 77.99,
  "latitud": 39.7500822,
  "longitud": -8.9421044
}, {
  "id": 18,
  "fecha": "2017-09-19",
  "importe": 10.66,
  "latitud": 50.2440056,
  "longitud": 20.7239305
}, {
  "id": 19,
  "fecha": "2017-05-20",
  "importe": 59.1,
  "latitud": 48.7226206,
  "longitud": 9.1584836
}, {
  "id": 20,
  "fecha": "2017-09-20",
  "importe": 86.45,
  "latitud": "-9.7138",
  "longitud": "120.0297"
}, {
  "id": 21,
  "fecha": "2017-10-12",
  "importe": 10.97,
  "latitud": 67.8256178,
  "longitud": 20.3351033
}, {
  "id": 22,
  "fecha": "2017-03-09",
  "importe": 73.13,
  "latitud": 44.412308,
  "longitud": 131.152545
}, {
  "id": 23,
  "fecha": "2017-03-08",
  "importe": 77.94,
  "latitud": 22.529403,
  "longitud": 103.93935
}, {
  "id": 24,
  "fecha": "2017-01-26",
  "importe": 75.57,
  "latitud": 7.70104,
  "longitud": 122.132937
}, {
  "id": 25,
  "fecha": "2017-07-02",
  "importe": 74.99,
  "latitud": 45.51596,
  "longitud": 83.867628
}, {
  "id": 26,
  "fecha": "2017-04-19",
  "importe": 90.82,
  "latitud": 38.6026034,
  "longitud": -90.4365807
}, {
  "id": 27,
  "fecha": "2017-02-08",
  "importe": 13.64,
  "latitud": 53.5313317,
  "longitud": 43.6704377
}, {
  "id": 28,
  "fecha": "2017-11-12",
  "importe": 76.52,
  "latitud": 69.63186,
  "longitud": 18.9221
}, {
  "id": 29,
  "fecha": "2017-11-25",
  "importe": 44.86,
  "latitud": 34.56128,
  "longitud": 105.58335
}, {
  "id": 30,
  "fecha": "2017-08-01",
  "importe": 45.75,
  "latitud": -7.1057357,
  "longitud": 108.7066398
}, {
  "id": 31,
  "fecha": "2017-01-17",
  "importe": 6.99,
  "latitud": 42.5187534,
  "longitud": 27.4772798
}, {
  "id": 32,
  "fecha": "2017-10-12",
  "importe": 95.07,
  "latitud": -9.8232056,
  "longitud": -77.6493992
}, {
  "id": 33,
  "fecha": "2017-04-06",
  "importe": 22.42,
  "latitud": 65.8375549,
  "longitud": 13.2106011
}, {
  "id": 34,
  "fecha": "2017-12-21",
  "importe": 25.78,
  "latitud": 32.3964882,
  "longitud": 36.6498717
}, {
  "id": 35,
  "fecha": "2017-11-30",
  "importe": 4.7,
  "latitud": 53.0815746,
  "longitud": 15.4900234
}, {
  "id": 36,
  "fecha": "2017-04-09",
  "importe": 21.39,
  "latitud": 38.7933106,
  "longitud": 140.2234077
}, {
  "id": 37,
  "fecha": "2018-01-10",
  "importe": 27.21,
  "latitud": 33.347316,
  "longitud": 120.16366
}, {
  "id": 38,
  "fecha": "2017-10-15",
  "importe": 44.77,
  "latitud": -6.8,
  "longitud": 106.183333
}, {
  "id": 39,
  "fecha": "2017-11-12",
  "importe": 98.46,
  "latitud": 37.444498,
  "longitud": 114.498761
}, {
  "id": 40,
  "fecha": "2017-05-29",
  "importe": 15.16,
  "latitud": 42.6580023,
  "longitud": 141.6664383
}, {
  "id": 41,
  "fecha": "2017-12-16",
  "importe": 35.83,
  "latitud": 46.8843099,
  "longitud": -96.7847834
}, {
  "id": 42,
  "fecha": "2017-09-06",
  "importe": 31.88,
  "latitud": 5.7204203,
  "longitud": 10.901604
}, {
  "id": 43,
  "fecha": "2017-01-31",
  "importe": 23.81,
  "latitud": -6.192143,
  "longitud": 106.8209006
}, {
  "id": 44,
  "fecha": "2017-07-20",
  "importe": 51.41,
  "latitud": 44.3417656,
  "longitud": -79.542666
}, {
  "id": 45,
  "fecha": "2017-08-10",
  "importe": 50.28,
  "latitud": 29.6464527,
  "longitud": -95.4935119
}, {
  "id": 46,
  "fecha": "2017-02-12",
  "importe": 5.95,
  "latitud": 49.7666568,
  "longitud": 1.1843207
}, {
  "id": 47,
  "fecha": "2017-04-18",
  "importe": 21.44,
  "latitud": 45.1604718,
  "longitud": 14.7725567
}, {
  "id": 48,
  "fecha": "2017-05-17",
  "importe": 33.7,
  "latitud": -8.613782,
  "longitud": 125.2052299
}, {
  "id": 49,
  "fecha": "2017-03-07",
  "importe": 82.33,
  "latitud": 39.876135,
  "longitud": -8.9189073
}, {
  "id": 50,
  "fecha": "2018-01-06",
  "importe": 21.31,
  "latitud": 26.608357,
  "longitud": 118.481377
}, {
  "id": 51,
  "fecha": "2017-06-28",
  "importe": 48.49,
  "latitud": -12.7772947,
  "longitud": -38.9211273
}, {
  "id": 52,
  "fecha": "2017-10-14",
  "importe": 81.6,
  "latitud": -34.6342051,
  "longitud": -58.4349355
}, {
  "id": 53,
  "fecha": "2017-05-05",
  "importe": 97.42,
  "latitud": -6.8646647,
  "longitud": 107.5889804
}, {
  "id": 54,
  "fecha": "2017-06-02",
  "importe": 77.4,
  "latitud": 48.375888,
  "longitud": 135.5602794
}, {
  "id": 55,
  "fecha": "2017-08-28",
  "importe": 97.97,
  "latitud": 50.122577,
  "longitud": 26.1149716
}, {
  "id": 56,
  "fecha": "2017-01-11",
  "importe": 88.68,
  "latitud": 43.5370504,
  "longitud": 24.7458579
}, {
  "id": 57,
  "fecha": "2017-01-30",
  "importe": 20.86,
  "latitud": 36.7010563,
  "longitud": 118.9112031
}, {
  "id": 58,
  "fecha": "2017-01-21",
  "importe": 3.01,
  "latitud": 59.2695504,
  "longitud": 18.0574637
}, {
  "id": 59,
  "fecha": "2017-06-24",
  "importe": 92.02,
  "latitud": "-13.07361",
  "longitud": "-74.41194"
}, {
  "id": 60,
  "fecha": "2017-03-21",
  "importe": 68.41,
  "latitud": 12.4680818,
  "longitud": 102.100396
}, {
  "id": 61,
  "fecha": "2017-01-12",
  "importe": 54.72,
  "latitud": 50.494493,
  "longitud": 15.5150382
}, {
  "id": 62,
  "fecha": "2017-01-13",
  "importe": 3.65,
  "latitud": 10.9455193,
  "longitud": 122.5100535
}, {
  "id": 63,
  "fecha": "2017-09-19",
  "importe": 59.4,
  "latitud": 10.4818973,
  "longitud": 124.0211737
}, {
  "id": 64,
  "fecha": "2017-11-18",
  "importe": 83.99,
  "latitud": 29.103856,
  "longitud": 110.451191
}, {
  "id": 65,
  "fecha": "2017-06-19",
  "importe": 27.49,
  "latitud": 14.5801157,
  "longitud": 101.003522
}, {
  "id": 66,
  "fecha": "2018-01-02",
  "importe": 89.08,
  "latitud": 30.4649282,
  "longitud": -84.3857442
}, {
  "id": 67,
  "fecha": "2017-03-26",
  "importe": 57.62,
  "latitud": 51.748067,
  "longitud": 18.492437
}, {
  "id": 68,
  "fecha": "2017-11-20",
  "importe": 11.74,
  "latitud": 45.116904,
  "longitud": 42.503334
}, {
  "id": 69,
  "fecha": "2017-06-30",
  "importe": 4.91,
  "latitud": 31.352859,
  "longitud": 118.432941
}, {
  "id": 70,
  "fecha": "2017-11-16",
  "importe": 29.78,
  "latitud": 51.4063964,
  "longitud": -2.6467239
}, {
  "id": 71,
  "fecha": "2017-01-14",
  "importe": 19.23,
  "latitud": -5.1804211,
  "longitud": 105.4302383
}, {
  "id": 72,
  "fecha": "2017-08-26",
  "importe": 18.34,
  "latitud": 53.7942932,
  "longitud": -8.7683674
}, {
  "id": 73,
  "fecha": "2017-10-22",
  "importe": 39.34,
  "latitud": 27.236635,
  "longitud": 108.912375
}, {
  "id": 74,
  "fecha": "2017-09-18",
  "importe": 39.45,
  "latitud": 37.1994932,
  "longitud": 126.8311887
}, {
  "id": 75,
  "fecha": "2017-11-21",
  "importe": 47.58,
  "latitud": 48.3606958,
  "longitud": -0.2717072
}, {
  "id": 76,
  "fecha": "2017-03-02",
  "importe": 71.17,
  "latitud": "-12.31086",
  "longitud": "44.43702"
}, {
  "id": 77,
  "fecha": "2017-09-23",
  "importe": 53.97,
  "latitud": 49.6638396,
  "longitud": 6.0744284
}, {
  "id": 78,
  "fecha": "2017-11-03",
  "importe": 18.38,
  "latitud": 44.9425871,
  "longitud": 34.1865097
}, {
  "id": 79,
  "fecha": "2017-05-09",
  "importe": 58.07,
  "latitud": -22.7186089,
  "longitud": -42.6279835
}, {
  "id": 80,
  "fecha": "2017-12-27",
  "importe": 82.89,
  "latitud": 16.6258353,
  "longitud": -11.4055282
}, {
  "id": 81,
  "fecha": "2017-01-18",
  "importe": 99.45,
  "latitud": 9.6399306,
  "longitud": 123.8572829
}, {
  "id": 82,
  "fecha": "2018-01-06",
  "importe": 83.26,
  "latitud": 30.662051,
  "longitud": 92.368911
}, {
  "id": 83,
  "fecha": "2017-06-16",
  "importe": 97.15,
  "latitud": "35.89222",
  "longitud": "14.51833"
}, {
  "id": 84,
  "fecha": "2017-12-05",
  "importe": 12.64,
  "latitud": 59.3779388,
  "longitud": 10.7605604
}, {
  "id": 85,
  "fecha": "2017-06-10",
  "importe": 26.56,
  "latitud": 43.6410973,
  "longitud": 51.1985113
}, {
  "id": 86,
  "fecha": "2017-07-19",
  "importe": 58.54,
  "latitud": 10.333833,
  "longitud": 123.9266643
}, {
  "id": 87,
  "fecha": "2017-12-29",
  "importe": 11.26,
  "latitud": 23.106401,
  "longitud": 113.459749
}, {
  "id": 88,
  "fecha": "2017-11-01",
  "importe": 69.68,
  "latitud": -2.9062039,
  "longitud": 114.6905436
}, {
  "id": 89,
  "fecha": "2017-06-06",
  "importe": 7.13,
  "latitud": 49.2389409,
  "longitud": -121.7658827
}, {
  "id": 90,
  "fecha": "2017-07-06",
  "importe": 82.5,
  "latitud": 50.7648787,
  "longitud": 15.3726031
}, {
  "id": 91,
  "fecha": "2017-09-12",
  "importe": 31.29,
  "latitud": 19.3852368,
  "longitud": -98.9545512
}, {
  "id": 92,
  "fecha": "2017-02-18",
  "importe": 47.76,
  "latitud": 38.92,
  "longitud": -76.99
}, {
  "id": 93,
  "fecha": "2017-09-28",
  "importe": 40.37,
  "latitud": 43.9373047,
  "longitud": 15.4435586
}, {
  "id": 94,
  "fecha": "2017-02-24",
  "importe": 7.45,
  "latitud": 4.6096768,
  "longitud": 101.1064003
}, {
  "id": 95,
  "fecha": "2017-12-21",
  "importe": 86.47,
  "latitud": -29.1110188,
  "longitud": 26.1862067
}, {
  "id": 96,
  "fecha": "2017-08-09",
  "importe": 43.51,
  "latitud": 59.3551153,
  "longitud": 17.9700257
}, {
  "id": 97,
  "fecha": "2017-06-13",
  "importe": 4.75,
  "latitud": 35.5955313,
  "longitud": 36.0322459
}, {
  "id": 98,
  "fecha": "2017-10-28",
  "importe": 77.84,
  "latitud": 36.9073868,
  "longitud": 54.8566207
}, {
  "id": 99,
  "fecha": "2017-10-05",
  "importe": 72.09,
  "latitud": 11.8042973,
  "longitud": 15.8613233
}, {
  "id": 100,
  "fecha": "2017-11-08",
  "importe": 70.5,
  "latitud": 44.2006496,
  "longitud": 43.4273768
}]
